info face="Abadi MT Condensed Extra Bold" size=33 bold=0 italic=0 charset="" unicode=0 stretchH=100 smooth=1 aa=1 padding=0,0,0,0 spacing=0,0
common lineHeight=39 base=30 scaleW=256 scaleH=192 pages=1 packed=0
page id=0 file="score_label_font.png"
chars count=95
char id=32 x=26 y=62 width=0 height=0 xoffset=0 yoffset=27 xadvance=6 page=0 chnl=0
char id=33 x=155 y=134 width=8 height=25 xoffset=2 yoffset=4 xadvance=8 page=0 chnl=0
char id=34 x=235 y=46 width=15 height=11 xoffset=2 yoffset=4 xadvance=14 page=0 chnl=0
char id=35 x=1 y=88 width=22 height=26 xoffset=1 yoffset=4 xadvance=20 page=0 chnl=0
char id=36 x=30 y=133 width=16 height=29 xoffset=1 yoffset=2 xadvance=13 page=0 chnl=0
char id=37 x=1 y=33 width=28 height=28 xoffset=1 yoffset=3 xadvance=25 page=0 chnl=0
char id=38 x=30 y=28 width=19 height=26 xoffset=1 yoffset=3 xadvance=16 page=0 chnl=0
char id=39 x=22 y=146 width=7 height=11 xoffset=1 yoffset=4 xadvance=6 page=0 chnl=0
char id=40 x=155 y=67 width=11 height=32 xoffset=4 yoffset=4 xadvance=12 page=0 chnl=0
char id=41 x=50 y=154 width=11 height=32 xoffset=2 yoffset=4 xadvance=12 page=0 chnl=0
char id=42 x=105 y=176 width=13 height=13 xoffset=2 yoffset=4 xadvance=13 page=0 chnl=0
char id=43 x=122 y=46 width=20 height=20 xoffset=2 yoffset=7 xadvance=20 page=0 chnl=0
char id=44 x=139 y=170 width=8 height=15 xoffset=2 yoffset=22 xadvance=8 page=0 chnl=0
char id=45 x=235 y=58 width=11 height=8 xoffset=2 yoffset=16 xadvance=10 page=0 chnl=0
char id=46 x=200 y=91 width=8 height=8 xoffset=2 yoffset=21 xadvance=8 page=0 chnl=0
char id=47 x=50 y=125 width=13 height=28 xoffset=1 yoffset=4 xadvance=10 page=0 chnl=0
char id=48 x=65 y=79 width=18 height=25 xoffset=1 yoffset=4 xadvance=15 page=0 chnl=0
char id=49 x=213 y=67 width=11 height=24 xoffset=3 yoffset=5 xadvance=15 page=0 chnl=0
char id=50 x=122 y=67 width=16 height=24 xoffset=2 yoffset=5 xadvance=15 page=0 chnl=0
char id=51 x=139 y=119 width=15 height=25 xoffset=2 yoffset=4 xadvance=15 page=0 chnl=0
char id=52 x=65 y=132 width=18 height=24 xoffset=1 yoffset=5 xadvance=15 page=0 chnl=0
char id=53 x=139 y=145 width=15 height=24 xoffset=3 yoffset=5 xadvance=15 page=0 chnl=0
char id=54 x=228 y=1 width=17 height=25 xoffset=1 yoffset=4 xadvance=15 page=0 chnl=0
char id=55 x=105 y=151 width=16 height=24 xoffset=1 yoffset=5 xadvance=15 page=0 chnl=0
char id=56 x=210 y=1 width=17 height=25 xoffset=1 yoffset=4 xadvance=15 page=0 chnl=0
char id=57 x=192 y=1 width=17 height=25 xoffset=1 yoffset=4 xadvance=15 page=0 chnl=0
char id=58 x=122 y=170 width=8 height=19 xoffset=2 yoffset=10 xadvance=8 page=0 chnl=0
char id=59 x=21 y=115 width=8 height=26 xoffset=2 yoffset=11 xadvance=8 page=0 chnl=0
char id=60 x=84 y=49 width=20 height=21 xoffset=2 yoffset=6 xadvance=20 page=0 chnl=0
char id=61 x=163 y=27 width=20 height=14 xoffset=2 yoffset=10 xadvance=20 page=0 chnl=0
char id=62 x=84 y=27 width=20 height=21 xoffset=2 yoffset=6 xadvance=20 page=0 chnl=0
char id=63 x=105 y=124 width=15 height=26 xoffset=1 yoffset=3 xadvance=13 page=0 chnl=0
char id=64 x=1 y=1 width=28 height=31 xoffset=1 yoffset=4 xadvance=26 page=0 chnl=0
char id=65 x=30 y=107 width=19 height=25 xoffset=0 yoffset=4 xadvance=15 page=0 chnl=0
char id=66 x=65 y=53 width=18 height=25 xoffset=2 yoffset=4 xadvance=15 page=0 chnl=0
char id=67 x=50 y=98 width=14 height=26 xoffset=1 yoffset=3 xadvance=12 page=0 chnl=0
char id=68 x=65 y=27 width=18 height=25 xoffset=2 yoffset=4 xadvance=16 page=0 chnl=0
char id=69 x=139 y=93 width=15 height=25 xoffset=2 yoffset=4 xadvance=13 page=0 chnl=0
char id=70 x=139 y=67 width=15 height=25 xoffset=2 yoffset=4 xadvance=13 page=0 chnl=0
char id=71 x=65 y=105 width=17 height=26 xoffset=1 yoffset=3 xadvance=14 page=0 chnl=0
char id=72 x=174 y=1 width=17 height=25 xoffset=2 yoffset=4 xadvance=16 page=0 chnl=0
char id=73 x=245 y=67 width=8 height=25 xoffset=2 yoffset=4 xadvance=7 page=0 chnl=0
char id=74 x=225 y=67 width=10 height=25 xoffset=1 yoffset=4 xadvance=8 page=0 chnl=0
char id=75 x=65 y=1 width=18 height=25 xoffset=1 yoffset=4 xadvance=14 page=0 chnl=0
char id=76 x=122 y=144 width=15 height=25 xoffset=2 yoffset=4 xadvance=12 page=0 chnl=0
char id=77 x=1 y=146 width=20 height=25 xoffset=2 yoffset=4 xadvance=19 page=0 chnl=0
char id=78 x=156 y=1 width=17 height=25 xoffset=2 yoffset=4 xadvance=16 page=0 chnl=0
char id=79 x=30 y=1 width=19 height=26 xoffset=1 yoffset=3 xadvance=16 page=0 chnl=0
char id=80 x=138 y=1 width=17 height=25 xoffset=1 yoffset=4 xadvance=14 page=0 chnl=0
char id=81 x=1 y=115 width=19 height=30 xoffset=1 yoffset=4 xadvance=16 page=0 chnl=0
char id=82 x=120 y=1 width=17 height=25 xoffset=1 yoffset=4 xadvance=14 page=0 chnl=0
char id=83 x=84 y=98 width=16 height=26 xoffset=1 yoffset=3 xadvance=13 page=0 chnl=0
char id=84 x=102 y=1 width=17 height=25 xoffset=1 yoffset=4 xadvance=14 page=0 chnl=0
char id=85 x=84 y=1 width=17 height=25 xoffset=1 yoffset=4 xadvance=15 page=0 chnl=0
char id=86 x=30 y=81 width=19 height=25 xoffset=0 yoffset=4 xadvance=15 page=0 chnl=0
char id=87 x=1 y=62 width=24 height=25 xoffset=0 yoffset=4 xadvance=20 page=0 chnl=0
char id=88 x=30 y=55 width=19 height=25 xoffset=1 yoffset=4 xadvance=15 page=0 chnl=0
char id=89 x=30 y=163 width=18 height=25 xoffset=0 yoffset=4 xadvance=14 page=0 chnl=0
char id=90 x=65 y=157 width=17 height=25 xoffset=1 yoffset=4 xadvance=14 page=0 chnl=0
char id=91 x=190 y=67 width=9 height=32 xoffset=5 yoffset=4 xadvance=11 page=0 chnl=0
char id=92 x=50 y=69 width=13 height=28 xoffset=1 yoffset=4 xadvance=10 page=0 chnl=0
char id=93 x=180 y=67 width=9 height=32 xoffset=2 yoffset=4 xadvance=11 page=0 chnl=0
char id=94 x=232 y=27 width=18 height=15 xoffset=2 yoffset=4 xadvance=17 page=0 chnl=0
char id=95 x=173 y=100 width=21 height=4 xoffset=0 yoffset=29 xadvance=16 page=0 chnl=0
char id=96 x=65 y=183 width=9 height=7 xoffset=2 yoffset=4 xadvance=9 page=0 chnl=0
char id=97 x=178 y=46 width=16 height=19 xoffset=1 yoffset=10 xadvance=13 page=0 chnl=0
char id=98 x=105 y=98 width=16 height=25 xoffset=2 yoffset=4 xadvance=14 page=0 chnl=0
char id=99 x=210 y=46 width=12 height=19 xoffset=1 yoffset=10 xadvance=10 page=0 chnl=0
char id=100 x=105 y=72 width=16 height=25 xoffset=1 yoffset=4 xadvance=14 page=0 chnl=0
char id=101 x=161 y=46 width=16 height=19 xoffset=1 yoffset=10 xadvance=13 page=0 chnl=0
char id=102 x=167 y=67 width=12 height=25 xoffset=0 yoffset=4 xadvance=8 page=0 chnl=0
char id=103 x=84 y=71 width=16 height=26 xoffset=1 yoffset=11 xadvance=14 page=0 chnl=0
char id=104 x=122 y=118 width=15 height=25 xoffset=2 yoffset=4 xadvance=14 page=0 chnl=0
char id=105 x=236 y=67 width=8 height=25 xoffset=2 yoffset=4 xadvance=7 page=0 chnl=0
char id=106 x=155 y=100 width=10 height=33 xoffset=0 yoffset=4 xadvance=7 page=0 chnl=0
char id=107 x=122 y=92 width=15 height=25 xoffset=2 yoffset=4 xadvance=12 page=0 chnl=0
char id=108 x=246 y=1 width=8 height=25 xoffset=2 yoffset=4 xadvance=7 page=0 chnl=0
char id=109 x=105 y=27 width=23 height=18 xoffset=2 yoffset=11 xadvance=21 page=0 chnl=0
char id=110 x=216 y=27 width=15 height=18 xoffset=2 yoffset=11 xadvance=14 page=0 chnl=0
char id=111 x=143 y=46 width=17 height=19 xoffset=1 yoffset=10 xadvance=14 page=0 chnl=0
char id=112 x=105 y=46 width=16 height=25 xoffset=2 yoffset=11 xadvance=14 page=0 chnl=0
char id=113 x=84 y=151 width=16 height=25 xoffset=1 yoffset=11 xadvance=14 page=0 chnl=0
char id=114 x=223 y=46 width=11 height=18 xoffset=2 yoffset=11 xadvance=9 page=0 chnl=0
char id=115 x=195 y=46 width=14 height=19 xoffset=1 yoffset=10 xadvance=11 page=0 chnl=0
char id=116 x=200 y=67 width=12 height=23 xoffset=0 yoffset=6 xadvance=9 page=0 chnl=0
char id=117 x=200 y=27 width=15 height=18 xoffset=2 yoffset=11 xadvance=14 page=0 chnl=0
char id=118 x=146 y=27 width=16 height=18 xoffset=0 yoffset=11 xadvance=11 page=0 chnl=0
char id=119 x=1 y=172 width=24 height=18 xoffset=0 yoffset=11 xadvance=19 page=0 chnl=0
char id=120 x=129 y=27 width=16 height=18 xoffset=0 yoffset=11 xadvance=12 page=0 chnl=0
char id=121 x=84 y=125 width=16 height=25 xoffset=0 yoffset=12 xadvance=12 page=0 chnl=0
char id=122 x=184 y=27 width=15 height=18 xoffset=1 yoffset=11 xadvance=12 page=0 chnl=0
char id=123 x=50 y=35 width=14 height=33 xoffset=1 yoffset=4 xadvance=11 page=0 chnl=0
char id=124 x=166 y=100 width=6 height=33 xoffset=8 yoffset=4 xadvance=17 page=0 chnl=0
char id=125 x=50 y=1 width=14 height=33 xoffset=1 yoffset=4 xadvance=11 page=0 chnl=0
char id=126 x=84 y=177 width=20 height=9 xoffset=2 yoffset=12 xadvance=20 page=0 chnl=0
kernings count=106
kerning first=74 second=44 amount=-1
kerning first=86 second=117 amount=-1
kerning first=84 second=97 amount=-1
kerning first=80 second=111 amount=-1
kerning first=74 second=46 amount=-1
kerning first=114 second=118 amount=1
kerning first=102 second=44 amount=-1
kerning first=84 second=99 amount=-2
kerning first=84 second=71 amount=-1
kerning first=83 second=44 amount=-1
kerning first=80 second=65 amount=-2
kerning first=86 second=101 amount=-1
kerning first=75 second=119 amount=1
kerning first=79 second=84 amount=-1
kerning first=83 second=46 amount=-1
kerning first=102 second=46 amount=-1
kerning first=79 second=86 amount=-1
kerning first=89 second=111 amount=-2
kerning first=79 second=88 amount=-1
kerning first=88 second=71 amount=-1
kerning first=87 second=58 amount=-1
kerning first=87 second=44 amount=-2
kerning first=79 second=89 amount=-1
kerning first=84 second=111 amount=-1
kerning first=87 second=59 amount=-1
kerning first=84 second=65 amount=-2
kerning first=89 second=112 amount=-1
kerning first=80 second=44 amount=-6
kerning first=87 second=46 amount=-2
kerning first=89 second=113 amount=-1
kerning first=76 second=84 amount=-1
kerning first=80 second=46 amount=-6
kerning first=79 second=65 amount=-1
kerning first=102 second=32 amount=2
kerning first=114 second=58 amount=1
kerning first=81 second=89 amount=-1
kerning first=76 second=86 amount=-1
kerning first=84 second=114 amount=-1
kerning first=102 second=33 amount=1
kerning first=114 second=59 amount=1
kerning first=80 second=101 amount=-1
kerning first=84 second=58 amount=-2
kerning first=84 second=44 amount=-3
kerning first=84 second=115 amount=-1
kerning first=76 second=89 amount=-1
kerning first=84 second=59 amount=-2
kerning first=84 second=46 amount=-3
kerning first=89 second=117 amount=-1
kerning first=102 second=63 amount=1
kerning first=79 second=44 amount=-1
kerning first=89 second=97 amount=-2
kerning first=119 second=44 amount=-1
kerning first=84 second=117 amount=-1
kerning first=89 second=100 amount=-2
kerning first=114 second=44 amount=-2
kerning first=79 second=46 amount=-1
kerning first=89 second=71 amount=-1
kerning first=89 second=101 amount=-2
kerning first=119 second=46 amount=-1
kerning first=81 second=44 amount=-1
kerning first=84 second=101 amount=-1
kerning first=114 second=46 amount=-2
kerning first=68 second=86 amount=-1
kerning first=81 second=46 amount=-1
kerning first=82 second=89 amount=-1
kerning first=68 second=89 amount=-1
kerning first=87 second=111 amount=-1
kerning first=89 second=79 amount=-1
kerning first=89 second=65 amount=-2
kerning first=86 second=71 amount=-1
kerning first=118 second=44 amount=-1
kerning first=85 second=44 amount=-1
kerning first=65 second=84 amount=-2
kerning first=114 second=106 amount=1
kerning first=68 second=65 amount=-1
kerning first=65 second=71 amount=-1
kerning first=89 second=67 amount=-1
kerning first=85 second=46 amount=-1
kerning first=65 second=86 amount=-1
kerning first=118 second=46 amount=-1
kerning first=65 second=89 amount=-2
kerning first=70 second=65 amount=-1
kerning first=89 second=58 amount=-2
kerning first=89 second=44 amount=-4
kerning first=114 second=121 amount=1
kerning first=89 second=59 amount=-2
kerning first=86 second=65 amount=-1
kerning first=86 second=111 amount=-1
kerning first=68 second=44 amount=-2
kerning first=89 second=46 amount=-4
kerning first=84 second=109 amount=-1
kerning first=98 second=44 amount=-1
kerning first=68 second=46 amount=-2
kerning first=121 second=44 amount=-2
kerning first=98 second=46 amount=-1
kerning first=74 second=65 amount=-1
kerning first=70 second=44 amount=-4
kerning first=114 second=116 amount=1
kerning first=86 second=58 amount=-1
kerning first=86 second=44 amount=-4
kerning first=70 second=46 amount=-4
kerning first=121 second=46 amount=-2
kerning first=86 second=59 amount=-1
kerning first=84 second=122 amount=-1
kerning first=86 second=46 amount=-4
kerning first=75 second=97 amount=1
